{
    "gastro_salary.A": "bis CHF 100'000",
    "gastro_salary.B": "bis CHF 300'000",
    "gastro_salary.C": "bis CHF 500'000",
    "gastro_salary.D": "bis CHF 1'000'000",
    "gastro_salary.E": "über CHF 1'000'000",
    "gastro_salary.P": "CHF 0 - Passivmitgliedschaft",
    "gastro_region.Aargau": "Argovia",
    "gastro_region.Appenzell AI": "Appenzello Interno",
    "gastro_region.Appenzell AR": "Appenzello Interno",
    "gastro_region.Baselland": "Basilea Campagna",
    "gastro_region.Bern": "Berna",
    "gastro_region.Fribourg": "Friburgo",
    "gastro_region.Genf": "Ginevra",
    "gastro_region.Glarus": "Glarus",
    "gastro_region.Graubünden": "Grigioni",
    "gastro_region.Jura": "Giura",
    "gastro_region.Luzern": "Lucerna",
    "gastro_region.Neuchâtel": "Neuchâtel",
    "gastro_region.Nidwalden": "Nidwalden",
    "gastro_region.Obwalden": "Obvaldo",
    "gastro_region.Schaffhausen": "Sciaffusa",
    "gastro_region.Schwyz": "Svitto",
    "gastro_region.Solothurn": "Soletta",
    "gastro_region.St. Gallen": "San Gallo",
    "gastro_region.Thurgau": "Turgovia",
    "gastro_region.Ticino": "Ticino",
    "gastro_region.Uri": "Uri",
    "gastro_region.Valais": "Vallese",
    "gastro_region.Vaud": "Vaud",
    "gastro_region.Wirteverband Basel-Stadt": "Basilea Città",
    "gastro_region.Zug": "Zugo",
    "gastro_region.Zürich": "Zurigo",
    "gastro_subregion.62": "Emmental-Oberaargau",
    "gastro_subregion.52_1": "Bern Zentrum",
    "gastro_subregion.52_2": "Bern Quartiere",
    "gastro_subregion.52_3": "Bern Umgebung",
    "gastro_subregion.52_4": "Bern Region",
    "gastro_subregion.54": "Seeland",
    "gastro_subregion.64": "Jura bernois et lac de Bienne",
    "gastro_subregion.72": "Fraubrunnen",
    "gastro_subregion.78": "Interlaken - Oberhasli",
    "gastro_subregion.90": "Emmental-Oberaargau",
    "gastro_subregion.94": "Oberland West",
    "gastro_subregion.30": "Innerrhoden",
    "gastro_subregion.10": "Fricktal",
    "gastro_subregion.15": "KulmLenzburg",
    "gastro_subregion.16": "Muri",
    "gastro_subregion.18": "Zofingen",
    "gastro_subregion.2": "Aarau",
    "gastro_subregion.21": "Zurzach\/Brugg",
    "gastro_subregion.4": "Baden",
    "gastro_subregion.6": "Bremgarten",
    "gastro_subregion.40": "Hinterland",
    "gastro_subregion.42": "Mittelland",
    "gastro_subregion.44": "Vorderland",
    "gastro_subregion.130": "Basel-Stadt",
    "gastro_subregion.140": "Broye-Glâne",
    "gastro_subregion.142": "Ville",
    "gastro_subregion.144": "Broye-Glân",
    "gastro_subregion.146": "Gruyère",
    "gastro_subregion.148": "Sarine-Campagne",
    "gastro_subregion.150": "Lac",
    "gastro_subregion.152": "Sense",
    "gastro_subregion.154": "Veveyse",
    "gastro_subregion.170": "Glarus",
    "gastro_subregion.175": "Gewerbe- und Gastro Val Müstair",
    "gastro_subregion.176": "Mittleres Engadin",
    "gastro_subregion.177": "St. Moritz & Umgebung",
    "gastro_subregion.178": "Gastro Unterengadin",
    "gastro_subregion.180": "Albula",
    "gastro_subregion.182": "Arosa",
    "gastro_subregion.186": "Churwalden\/Lenzerheide",
    "gastro_subregion.188": "Chur",
    "gastro_subregion.190": "Davos",
    "gastro_subregion.192": "Ems\/Domat",
    "gastro_subregion.196": "Herrschaft",
    "gastro_subregion.198": "Surselva",
    "gastro_subregion.200": "Mesolcina\/Mesocco",
    "gastro_subregion.202": "Poschiavo",
    "gastro_subregion.204": "Prättigau",
    "gastro_subregion.205": "Samnaun",
    "gastro_subregion.206": "GastroViamala",
    "gastro_subregion.210": "Entlebuch",
    "gastro_subregion.212": "Hochdorf",
    "gastro_subregion.214": "Luzern",
    "gastro_subregion.216": "Sursee",
    "gastro_subregion.218": "Uebersee",
    "gastro_subregion.220": "Willisau",
    "gastro_subregion.230": "Boudry",
    "gastro_subregion.232": "La Chaux-de-Fonds",
    "gastro_subregion.234": "Le Locle",
    "gastro_subregion.236": "Neuchâtel",
    "gastro_subregion.238": "Val-de-Ruz",
    "gastro_subregion.240": "Val-de-Travers",
    "gastro_subregion.250": "Nidwalden",
    "gastro_subregion.260": "Obwalden",
    "gastro_subregion.278": "Region Fürstenland",
    "gastro_subregion.286": "Region Toggenburg",
    "gastro_subregion.296": "Region See-Gaster",
    "gastro_subregion.298": "Bodensee-Rheintal",
    "gastro_subregion.302": "St. Gallen",
    "gastro_subregion.312": "Region Heidiland",
    "gastro_subregion.314": "Wil",
    "gastro_subregion.328": "Schaffhausen",
    "gastro_subregion.332": "Stein am Rhein",
    "gastro_subregion.352": "Dorneck-Thierstein",
    "gastro_subregion.354": "Thal-Gäu",
    "gastro_subregion.360": "Olten-Niederamt",
    "gastro_subregion.368": "Gastro Solothurn-West",
    "gastro_subregion.340": "Einsiedeln",
    "gastro_subregion.342": "Gastro Ausserschwyz",
    "gastro_subregion.344": "Innerschwyz",
    "gastro_subregion.348": "March",
    "gastro_subregion.378": "Region GastroFrauenfeld und Untersee & Rhein",
    "gastro_subregion.380": "Hinterthurgau",
    "gastro_subregion.382": "Region Kreuzlingen Weinfelden",
    "gastro_subregion.384": "Oberthurgau",
    "gastro_subregion.403": "Bellinzona Alto",
    "gastro_subregion.405": "Lago Maggiore e Valli",
    "gastro_subregion.407": "Lugano",
    "gastro_subregion.409": "Mendrisiotto",
    "gastro_subregion.430": "Aigle",
    "gastro_subregion.440": "Gros-de-Vaud",
    "gastro_subregion.446": "Lausanne",
    "gastro_subregion.456": "Morges",
    "gastro_subregion.458": "Broye-Vully",
    "gastro_subregion.460": "La Côte",
    "gastro_subregion.464": "Lavaux-Oron",
    "gastro_subregion.468": "Pays d'Enhaut",
    "gastro_subregion.478": "Riviera",
    "gastro_subregion.484": "Jura Nord Vaudois",
    "gastro_subregion.490": "Verbier, Val de Bagnes, Vollèges",
    "gastro_subregion.492": "Brig",
    "gastro_subregion.494": "Conthey",
    "gastro_subregion.496": "Entremont",
    "gastro_subregion.500": "Martigny",
    "gastro_subregion.502": "Monthey",
    "gastro_subregion.504": "St. Maurice",
    "gastro_subregion.506": "Sierre",
    "gastro_subregion.508": "Sion",
    "gastro_subregion.510": "Visp-Leuk West Raron",
    "gastro_subregion.512": "Val d'Anniviers",
    "gastro_subregion.514": "Crans-Montana-Aminona",
    "gastro_subregion.516": "Leukerbad",
    "gastro_subregion.518": "Zermatt",
    "gastro_subregion.530": "Affoltern",
    "gastro_subregion.532": "Andelfingen",
    "gastro_subregion.534": "ZH-Unterland",
    "gastro_subregion.540": "Horgen",
    "gastro_subregion.542": "Meilen",
    "gastro_subregion.544": "ZH-Oberland",
    "gastro_subregion.548": "Uster",
    "gastro_subregion.550": "Winterthur",
    "gastro_subregion.552": "Zürich-City",
    "haft_deductibles.200": "CHF 200",
    "haft_deductibles.500": "CHF 500",
    "haft_deductibles.1000": "CHF 1’000",
    "haft_category.A": "Sistemazione fino a 9 letti",
    "haft_category.B": "Sistemazione da 10 posti letto",
    "haft_category.AA": "Gastronomia senza alloggio",
    "ausfall_deductibles.500": "CHF 500",
    "ausfall_deductibles.1000": "CHF 1’000",
    "ausfall_deductibles.2000": "CHF 2’000",
    "inventar_deductibles.500": "CHF 500",
    "inventar_deductibles.1000": "CHF 1’000",
    "inventar_deductibles.2000": "CHF 2’000",
    "gebäude_deductibles.500": "CHF 500",
    "gebäude_deductibles.1000": "CHF 1'000",
    "gebäude_deductibles.2000": "CHF 2'000",
    "zone.A": "Genf, Uri, Schwyz, Tessin, Appenzell Innerrhoden (jedoch ohne Bezirk Oberegg), Wallis, Obwalden",
    "zone.B": "Nidwalden, Waadt",
    "zone.C": "Altri Cantoni",
    "zone.D": "Principato del Liechtenstein",
    "price_parameter.gastro_salary": "Salario totale (totale per anno, lordo)",
    "price_parameter.gastro_salary.short": "Salario totale (totale per anno, lordo)",
    "price_parameter.gastro_salary.tooltip": "Il salario annuo corrisponde alla massa salariale AVS di tutti i collaboratori attualmente registrata. Se la società è stata fondata di recente, l'importo deve essere stimato o prelevato dal piano aziendale.",
    "price_parameter.gastro_region": "Cantoni",
    "price_parameter.gastro_region.short": "Cantoni",
    "price_parameter.gastro_subregion": "Distretto \/ Sezione",
    "price_parameter.gastro_subregion.short": "Distretto \/ Sezione",
    "price_parameter.restaurant_ad_on": "Numero di stabilimenti",
    "price_parameter.restaurant_ad_on.short": "Numero di stabilimenti",
    "price_parameter.re_entry": "Sono membro da 2 anni",
    "price_parameter.re_entry.short": "Sono membro da 2 anni",
    "price_parameter.annual_payroll": "Salario totale (totale all'anno)",
    "price_parameter.annual_payroll.short": "Salario totale (totale all'anno)",
    "price_parameter.annual_payroll.tooltip": "Il salario annuo corrisponde alla massa salariale AVS di tutti i collaboratori attualmente registrata. Se la società è stata fondata di recente, l'importo deve essere stimato o prelevato dal piano aziendale.",
    "price_parameter.haft_deductibles": "Franchigia",
    "price_parameter.haft_deductibles.short": "Franchigia",
    "price_parameter.haft_deductibles.tooltip": "La franchigia è l'importo che dovete pagare voi stessi in caso di sinistro.",
    "price_parameter.haft_category": "Modalità di funzionamento",
    "price_parameter.haft_category.short": "Modalità di funzionamento",
    "price_parameter.annual_revenue": "Fatturato (totale annuo)",
    "price_parameter.annual_revenue.short": "Fatturato (totale annuo)",
    "price_parameter.annual_revenue.tooltip": "Le vendite corrispondono alle vendite dell'anno precedente della società. Se l'azienda è appena stata fondata o se si prevede un notevole scostamento nell'anno in corso, l'importo deve essere stimato o prelevato dal piano aziendale.",
    "price_parameter.ausfall_deductibles": "Franchigia",
    "price_parameter.ausfall_deductibles.short": "Franchigia",
    "price_parameter.ausfall_deductibles.tooltip": "La franchigia è l'importo che dovete pagare voi stessi in caso di sinistro.",
    "price_parameter.inventory_value": "Somma assicurata (inventario al valore di ripristino)",
    "price_parameter.inventory_value.short": "Somma assicurata (inventario al valore di ripristino)",
    "price_parameter.inventory_value.tooltip": "La somma assicurata (inventario del nuovo valore) è la somma di tutti gli oggetti (mobili, macchinari, attrezzature tecniche e altri beni) al nuovo prezzo.",
    "price_parameter.inventar_deductibles": "Franchigia",
    "price_parameter.inventar_deductibles.short": "Franchigia",
    "price_parameter.inventar_deductibles.tooltip": "La franchigia è l'importo che dovete pagare voi stessi in caso di sinistro.",
    "price_parameter.zone": "Posizione dell'edificio\t",
    "price_parameter.zone.short": "Posizione dell'edificio\t",
    "price_parameter.zone.tooltip": "Selezionare il cantone in cui si trova l'edificio da assicurare.",
    "price_parameter.building_value": "Valore di costruzione\t",
    "price_parameter.building_value.short": "Valore di costruzione\t",
    "price_parameter.building_value.tooltip": "Il valore dell'immobile è la somma d'assicurazione ufficiale, che di regola è valutata da un'autorità cantonale (ad es. Cantone di Zurigo: somma d'assicurazione secondo la valutazione della ZGV).",
    "price_parameter.gebäude_deductibles": "Franchigia",
    "price_parameter.gebäude_deductibles.short": "Franchigia",
    "price_parameter.gebäude_deductibles.tooltip": "La franchigia è l'importo che dovete pagare voi stessi in caso di sinistro.",
    "price_parameter.gastro_zip": "ZIP",
    "price_parameter.gastro_zip.short": "ZIP",
    "price_parameter.gastro_zip.tooltip": "Inserire il codice postale in cui ha sede l'azienda.",
    "price_parameter.salary_of_majority_owner": "Somma salariale del titolare (totale per anno)",
    "price_parameter.type_of_company": "Forma sociale",
    "price_parameter.does_majority_owner_works": "Il titolare lavora nell'azienda?",
    "price_parameter.salaries_of_employees": "Somma salariale del personale (totale per anno)",
    "price_parameter.activity_of_company": "Tipo di esercizio",
    "activity_of_company.Internetcafé": "Internet café",
    "activity_of_company.7323.0": "Internet café",
    "activity_of_company.Tearoom": "Sala da tè",
    "activity_of_company.7323.05": "Sala da tè",
    "activity_of_company.Rasthaus": "Ristorante autostradale",
    "activity_of_company.7323.04": "Ristorante autostradale",
    "activity_of_company.Konditorei mit Tearoom": "Pasticceria con sala da tè",
    "activity_of_company.7323.03": "Pasticceria con sala da tè",
    "activity_of_company.Kaffeestube": "Caffetteria",
    "activity_of_company.7323.02": "Caffetteria",
    "activity_of_company.Café": "Café",
    "activity_of_company.7323.01": "Café",
    "activity_of_company.Kurhaus": "Stabilimento di cura",
    "activity_of_company.7311.05": "Stabilimento di cura",
    "activity_of_company.Thermalbad (mit Hotel-Haupttätigkeit)": "Bagni termali (con l'attività principale dell'hotel)",
    "activity_of_company.7311.04": "Bagni termali (con l'attività principale dell'hotel)",
    "activity_of_company.Motel": "Motel",
    "activity_of_company.7311.03": "",
    "activity_of_company.Hotel": "Alberghiero",
    "activity_of_company.7311.02": "Alberghiero",
    "activity_of_company.Gasthof": "Locanda",
    "activity_of_company.7311.01": "Locanda",
    "activity_of_company.Nachtclub": "Locale notturno",
    "activity_of_company.7522.03": "Locale notturno",
    "activity_of_company.Diskothek": "Discoteca",
    "activity_of_company.7522.02": "Discoteca",
    "activity_of_company.Dancing": "Ballare",
    "activity_of_company.7522.01": "Ballare",
    "activity_of_company.Jugendherberge": "Ostello della gioventù",
    "activity_of_company.7413.00": "Ostello della gioventù",
    "activity_of_company.Partyservice, Catering": "Servizio feste, catering",
    "activity_of_company.7332.07": "Servizio feste, catering",
    "activity_of_company.Imbissstand, Takeaway": "Snack bar, cibo da asporto",
    "activity_of_company.7332.06": "Snack bar, cibo da asporto",
    "activity_of_company.Mahlzeitenservice, Mahlzeitenkurier": "Servizio pasti, servizio di consegna pasti",
    "activity_of_company.7332.05": "Servizio pasti, servizio di consegna pasti",
    "activity_of_company.Küche öff. Verwaltungen": "Cucina della Pubblica Amministrazione",
    "activity_of_company.7332.04": "Cucina della Pubblica Amministrazione",
    "activity_of_company.Kantine öff. Verwaltungen": "Mensa della Pubblica Amministrazione",
    "activity_of_company.7332.03": "Mensa della Pubblica Amministrazione",
    "activity_of_company.Kantine": "Mensa",
    "activity_of_company.7332.02": "Mensa",
    "activity_of_company.Betriebskantine": "Mensa aziendale",
    "activity_of_company.7332.01": "Mensa aziendale",
    "activity_of_company.Privatpension": "Pensione privata",
    "activity_of_company.7331.03": "Pensione privata",
    "activity_of_company.Pension": "Pensione",
    "activity_of_company.7331.02": "Pensione",
    "activity_of_company.Clubhaus": "Clubhouse",
    "activity_of_company.7331.01": "Clubhouse",
    "activity_of_company.Restaurant": "Ristorante",
    "activity_of_company.7321.02": "Ristorante",
    "activity_of_company.Bar": "Bar",
    "activity_of_company.7321.01": "Bar",
    "activity_of_company.Campingplatz": "Area campeggio",
    "activity_of_company.7313.00": "Area campeggio",
    "activity_of_company.Fremdenpension": "Pensione estera",
    "activity_of_company.7312.00": "Pensione estera",
    "type_of_company.Kommandit-AG": "SA in accomandita per azioni",
    "type_of_company.AG": "SA",
    "type_of_company.Kommanditgesellschaft": "Società in accomandita",
    "type_of_company.Kollektivgesellschaft": "Società in nome collettivo",
    "type_of_company.Einfache Gesellschaft": "Partenariato semplice",
    "type_of_company.Verein": "Associazione",
    "type_of_company.Genossenschaft": "Cooperativa",
    "type_of_company.GmbH": "GmbH",
    "type_of_company.Einzelfirma": "Impresa individuale",
    "price_parameter.waiting_period_employees": "Periodo d'attesa per il personale",
    "price_parameter.waiting_period_employees.short": "Periodo d'attesa per il personale",
    "price_parameter.salary_of_majority_owner.short": "Somma salariale del titolare",
    "price_parameter.salary_of_majority_owner.Krankentaggeld.tooltip": "Il salario del tirolare viene assicurato come somma fissa. Questo significa che il salario assicurato non deve corrispondere esattamente alla somma pagata.",
    "price_parameter.salary_of_majority_owner.Unfall.tooltip": "Il salario del tirolare viene assicurato come somma fissa. Questo significa che il salario assicurato non deve corrispondere esattamente alla somma pagata. Secondo la legge esso deve situarsi tra CHF 66'690 per le società di capitale (CHF 44'690 per le società di persone) e CHF 148'200.",
    "price_parameter.type_of_company.short": "Forma sociale",
    "price_parameter.type_of_company.tooltip": "La forma sociale deve essere rilevata secondo il registro di commercio. Se la ditta è ancora in fase di fondazione, vogliate indicare la futura forma sociale.",
    "price_parameter.does_majority_owner_works.short": "Il proprietario di maggioranza lavora all'interno dell'azienda?",
    "price_parameter.does_majority_owner_works.tooltip": "I proprietari di maggioranza sono persone che possiedono almeno il 51% della società. Se l'azienda è di proprietà di 2 persone, ciascuna con il 50% delle azioni, il loro totale salariale deve essere indicato sotto il personale.",
    "does_majority_owner_works.true": "Sì",
    "price_parameter.salaries_of_employees.short": "Salari dipendenti totali",
    "price_parameter.salaries_of_employees.tooltip": "La somma salariale annua corrisponde alla somma salariale AVS più recente di tutti i dipendenti. Se la ditta è stata fondata da poco, la somma deve essere stimata, rispettivamente desunta dal piano contabile.",
    "price_parameter.activity_of_company.short": "Modalità di funzionamento",
    "waiting_period__majority_owner.3 days": "3 giorni",
    "waiting_period__majority_owner.7 days": "7 giorni",
    "waiting_period__majority_owner.14 days": "14 giorni",
    "waiting_period__majority_owner.21 days": "21 giorni",
    "waiting_period__majority_owner.30 days": "30 giorni",
    "waiting_period__majority_owner.60 days": "60 giorni",
    "price_parameter.waiting_period_majority_owner": "Periodo d'attesa per il titolare",
    "price_parameter.waiting_period__majority_owner.short": "Periodo d'attesa per il titolare",
    "price_parameter.waiting_period_majority_owner.tooltip": "Il periodo d'attesa corrisponde al lasso di tempo durante il quale, in caso di diritto all'indennità giornaliera del titolare, la ditta deve pagare le indennità giornaliere prima che l'assicurazione assuma i pagamenti.",
    "waiting_period_employees.3 days": "3 giorni",
    "waiting_period_employees.7 days": "7 giorni",
    "waiting_period_employees.14 days": "14 giorni",
    "waiting_period_employees.21 days": "21 giorni",
    "waiting_period_employees.30 days": "30 giorni",
    "waiting_period_employees.60 days": "60 giorni",
    "price_parameter.waiting_period_employees.tooltip": "Il periodo d'attesa corrisponde al lasso di tempo durante il quale, in caso di diritto all'indennità giornaliera del dipendente, la ditta deve pagare le indennità giornaliere prima che l'assicurazione assuma i pagamenti.",
    "tariff_level.1": "Tariff level 1",
    "tariff_level.2": "Tariff level 2",
    "tariff_level.3": "Tariff level 3",
    "tariff_level.4": "Tariff level 4",
    "tariff_level.5": "Tariff level 5",
    "tariff_level.6": "Tariff level 6",
    "tariff_level.7": "Tariff level 7",
    "tariff_level.8": "Tariff level 8",
    "tariff_level.9": "Tariff level 9",
    "activity_done": "Done",
    "activity_in-progress": "In Progress\t",
    "activity_no-more-tasks": "No more tasks to do\t",
    "activity_see_all": "__STRING_NOT_TRANSLATED__",
    "activity_todo": "Todo",
    "additional-coverages-title": "Coperture aggiuntive\t",
    "assisted-by-consultant-question": "Ha ricevuto il supporto di un consulente Gastro per la scelta di un prodotto?",
    "attached-files-caption": "__STRING_NOT_TRANSLATED__",
    "auth-has-esurance-account-hint": "Le soluzioni assicurative di Gastrosuisse sono offerte esclusivamente attraverso la piattaforma di sicurezza digitale. Se non si dispone ancora di un conto di garanzia, verrà creato automaticamente un conto di garanzia gratuito come parte del processo di iscrizione.",
    "auth-has-esurance-account-question": "Sei già registrato con Gastroinsurance o esurance?",
    "banner-description": "Protezione esclusiva per ristoranti e alloggi con il miglior rapporto qualità-prezzo.",
    "banner-title": "ASSICURAZIONE SENZA COMPETIZIONE",
    "basket_download-pdf-offer": "Scarica offerta",
    "basket_empty-message": "Il tuo carrello è vuoto. Seleziona un prodotto\t",
    "basket_product-item_remove-link": "expurgate",
    "basket_product-item_tnc-link": "ICC",
    "basket_product-total-price_label": "Total",
    "basket_product_item-edit_link": "lavori su",
    "basket_selected-item_company-logo_by": "by",
    "basket_submit-btn": "Acquista ora",
    "basket_terms-and-contition_notification": "Si prega di accettare i termini e le condizioni prima di continuare.",
    "basket_title": "Il tuo carrello",
    "basket_tnc_description": "I vostri dati vengono memorizzati per garanzia e trasmessi alla compagnia di assicurazione selezionata per la preparazione del contratto. Si prega di notare la nostra <1>Informativa sulla privacy<\/1>",
    "basket_tnc_title": "Ho letto e accettato la <1>convenzione di collaborazione <\/1> e le condizioni generali di assicurazione (CGA) dei prodotti.\t",
    "basket_total-label": "Complessivo",
    "basket_uppsail_add-btn": "Aggiunta\t",
    "basket_upsale_title": "Altre assicurazioni per voi\t",
    "basket_upsell_membership-title": "Sodalizio\t",
    "basket_upsell_tip": "Per poter usufruire dell GastroAssicurazioni è necessario essere soci di GastroSuisse. La decisione di diventare membro della GastroSuisse spetta all'associazione e si basa sullo statuto attuale dell'associazione. In caso di mancata accettazione, le prestazioni assicurative non possono essere oggetto di alcuna pretesa.",
    "business_signup_org_info_company_name": "Stabilimento",
    "calculation-form-total-label": "Premio per anno\t",
    "product-config-future-tariff-start": "Riduzione dei premi: a partire dal 2020",
    "calculation-toggler-subline": "non coperto",
    "calculation-toggler-subline-checked": "coperto",
    "calculation-widget_checkout-button": "Aggiungi al carrello",
    "calculation-widget_coverage-title": "Configura preventivo\t",
    "calculation-widget_product-title": "Calcola il premio ora",
    "calculation-widget_submit-button": "Continuare",
    "cart-modal_description": "Per queste assicurazioni sono necessarie informazioni supplementari. Vi contatteremo entro 2 giorni lavorativi.\t",
    "cart-modal_header": "Grazie per l'acquisto\t",
    "cart-modal_submit-button": "Alla panoramica nel vostro abitacolo di bordo\t",
    "cart-modal_subtitle": "Le polizze assicurative sono visibili nella cabina di pilotaggio.\t",
    "city_invalid_message": "Inserisci una città valida\t",
    "claim-example-title": "Esempio di danno",
    "claim_select-placeholder": "Please choose\t",
    "company_name_invalid_message": "Inserisci il nome della tua azienda\t",
    "constant-time_of_day-afternoon": "Pomeriggio",
    "constant-time_of_day-evening": "Sera",
    "constant-time_of_day-morning": "Mattina",
    "constant-time_of_day-noon": "Mezzogiorno",
    "consultant-data_protection_info": "Informazioni sulla <1>protezione dei dati<\/1>.",
    "consultant-page_consultant-section_title": "La persona di contatto per la vostra regione è:",
    "consultant-page_form_button": "Inviare",
    "consultant-page_form_date_label": "Data desiderata",
    "consultant-page_form_email_label": "E-Mail ",
    "consultant-page_form_name_label": "Nome e cognome",
    "consultant-page_form_note_label": "Il tuo messaggio (facoltative)",
    "consultant-page_form_phone_label": "Numero di telefono",
    "consultant-page_form_time-of-day_label": "Orario desiderato",
    "consultant-page_form_title": "Fissa subito una consultazione gratuita.",
    "consultant-page_modal_button": "Torna alla pagina iniziale",
    "consultant-page_modal_content": "vi contatterà entro 1-2 giorni lavorativi per chiarire alcuni dettagli prima della data desiderata.",
    "consultant-page_modal_title": "La tua richiesta è stata inviata",
    "consultant-page_title": "Lasciatevi consigliare gratuitamente",
    "consultant-page_zip-section_button": "Ricerca",
    "consultant-page_zip-section_title": "Inserisci il codice postale del sito:",
    "correspondence_address_information_group_title": "Inserisci l'indirizzo di corrispondenza",
    "correspondence_location_address_same_as_company_address": "L'indirizzo dell'azienda è quello in cui si desidera ricevere la corrispondenza?",
    "correspondence_signup_org_info_company_name": "Nome\/Società",
    "deal_status-deleted": "__STRING_NOT_TRANSLATED__",
    "deal_status-lost": "__STRING_NOT_TRANSLATED__",
    "deal_status-open": "__STRING_NOT_TRANSLATED__",
    "deal_status-won": "__STRING_NOT_TRANSLATED__",
    "drag-n-drop_button-label": "__STRING_NOT_TRANSLATED__",
    "drag-n-drop_upload-error": "__STRING_NOT_TRANSLATED__",
    "dropdown-select-value-placeholder": "Selezionarne uno\t",
    "email-check-input": "Il formato non è valido. Si prega di controllare l'e-mail.",
    "empty-filed-error-message": "Questo è un campo obbligatorio",
    "exception": "Oops, qualcosa sembra non funzionare Siamo già informati, ma siamo felici di ricevere ulteriori informazioni\t",
    "exception_button": "manda alla certezza\t",
    "exchange-service_button-label": "Richiesta via chat\t",
    "fingerprint_error": "__STRING_NOT_TRANSLATED__",
    "footer_partners": "GastroSuisse consiglia soluzioni assicurative:",
    "footer_user-info": "<1>Qui<\/1> Scopri di più sulla collaborazione tra GastroSuisse e la sicurezza",
    "forgot-password-link": "Hai dimenticato la password?",
    "gastro_goto_next_questionnaire": "Continuare",
    "gastro_member-hint": "Per beneficiare delle soluzioni assicurative, è necessario essere membri di GastroSuisse. Se non sei ancora registrato, clicca su \"No\". Poi è possibile aggiungere l'abbonamento al carrello della spesa.",
    "gateway-error": "Gateway error\t",
    "gdpr-button": "Spegni",
    "gdpr-content": "Continuando a utilizzare questo sito web, l'utente accetta l'uso dei cookie e <1>l'informativa sulla privacy<\/1> di esurance.",
    "header_button-request_consultation": "Consultazione gratuita",
    "header_button-request_consultation-mobile": "Consultazione",
    "image-uploader_description": "__STRING_NOT_TRANSLATED__",
    "input_default-invalid-message": "Ingresso non valido\t",
    "insurance_company_autocomplete-label": "__STRING_NOT_TRANSLATED__",
    "insurance_company_autocomplete-placeholder": "__STRING_NOT_TRANSLATED__",
    "insurance_company_autocomplete-required_error_message": "Error",
    "insured_address_information_group_title": "Si prega di inserire le seguenti informazioni",
    "insured_location_address_same_as_company_address": "L'indirizzo dell'azienda corrisponde alla dell stabilimento?",
    "invalid-zip-code-error-message": "Questo codice postale ci è sconosciuto. Per favore, controlla la tua voce",
    "is-member-of-gastrosuisse-question": "Sei già membro di GastroSuisse?",
    "ktg_survey_disclaimer": "Confermo i <1><0>termini e le condizioni per le dichiarazione di salute<\/0><\/1> et confermo di avere risposto in modo veritiero e completo a tutte le domande e che anche le risposte non scritte di mio pugno corrispondono alle circostanze effettive.",
    "login-button": "Login",
    "login-invalid-credentials": "Logon non riuscito\t",
    "login-invalid-too-mutch-request": "__STRING_NOT_TRANSLATED__",
    "login-user_info-check-sms": "Inserisci qui il codice SMS:\t",
    "login-user_info-email": "E-Mail\t",
    "login-user_info-password": "Password",
    "login_email-input_label": "__STRING_NOT_TRANSLATED__",
    "login_go-back-button": "__STRING_NOT_TRANSLATED__",
    "login_no-account_text": "__STRING_NOT_TRANSLATED__",
    "login_password-input_label": "__STRING_NOT_TRANSLATED__",
    "login_sign-up-link": "__STRING_NOT_TRANSLATED__",
    "login_sms-validation_code-title": "__STRING_NOT_TRANSLATED__",
    "login_sms-validation_description": "__STRING_NOT_TRANSLATED__",
    "login_sms-validation_no-code": "__STRING_NOT_TRANSLATED__",
    "login_sms-validation_resend-link": "__STRING_NOT_TRANSLATED__",
    "login_submit": "__STRING_NOT_TRANSLATED__",
    "login_terms_agree": "__STRING_NOT_TRANSLATED__",
    "login_terms_agree-link": "__STRING_NOT_TRANSLATED__",
    "login_terms_error": "__STRING_NOT_TRANSLATED__",
    "login_terms_info": "__STRING_NOT_TRANSLATED__",
    "login_title": "__STRING_NOT_TRANSLATED__",
    "logout_notification_click-button": "__STRING_NOT_TRANSLATED__",
    "logout_notification_expired-token": "Il tuo token è scaduto\t",
    "logout_notification_message": "Sei stato disconnesso",
    "membership-button_caption": "Diventa un membro",
    "membership-message": "Per beneficiare delle soluzioni assicurative, è necessario essere membri di GastroSuisse. Si prega di aggiungere l'iscrizione al carrello.",
    "membership-product-info_tnc-collapse_title": "Statuti",
    "money-with-currency_from": "da",
    "no-caption": "No",
    "not-found_descrition": "Per favore riprova più tardi o contatta il nostro supporto\t",
    "not-found_title": "Questa pagina è temporaneamente non disponibile\t",
    "notification-panel_login": "__STRING_NOT_TRANSLATED__",
    "organization_state-customer": "Customer\t",
    "organization_state-evangelist": "Evangelist",
    "organization_state-lead": "Lead",
    "organization_state-marketing_qualified_lead": "MQL",
    "organization_state-opportunity": "Opportunity",
    "organization_state-other": "Other",
    "organization_state-sales_qualifiedLead": "SQL",
    "organization_state-subscriber": "Subscriber",
    "pagination-caption-next": "Prossimo",
    "pagination-caption-prev": "schienale",
    "pdf_offer-name": "Offerta GASTROVERSICHERUNGEN",
    "phone-check-input": "Il formato non è valido. Es. +41791234567",
    "phone_number_invalid_message": "Inserisci il tuo numero di telefono (+41 7X XXX XX XX)\t",
    "policy_status_active": "Active",
    "policy_status_canceled": "Cancelled\t",
    "policy_status_draft": "Draft",
    "policy_status_inactive": "Inactive",
    "policy_status_onhold": "On Hold\t",
    "postal_code_invalid_message": "Inserisci un codice postale valido (8000)\t",
    "price_breakdown-name-employee": "Parte di premio del personale",
    "price_breakdown-name-employer": "Parte di premio del datore di lavoro",
    "price_breakdown-name-majority_owner": "Parte di premio del titolare",
    "product-configuration_banner_our-offer": "il tuo preventivo\t",
    "product-info_tnc-collapse_title": "Condizioni\t",
    "product-market-comparison_title": "Confronto di mercato",
    "product-market-comparison_standard": "Standard di mercato",
    "product-page_comparison-download": "qui",
    "product-page_logo-wrapper_by": "Gli assicuratori:",
    "product-tax": "Tasse (bollo senza IVA)\t",
    "product_autocomplete-label": "__STRING_NOT_TRANSLATED__",
    "product_autocomplete-placeholder": "__STRING_NOT_TRANSLATED__",
    "product_autocomplete-required_error_message": "__STRING_NOT_TRANSLATED__",
    "product_details-general_info-rating-bad": "__STRING_NOT_TRANSLATED__",
    "product_details-general_info-rating-good": "__STRING_NOT_TRANSLATED__",
    "product_details-general_info-rating-label": "__STRING_NOT_TRANSLATED__",
    "product_details-general_info-rating-normal": "__STRING_NOT_TRANSLATED__",
    "product_details-general_info-rating-very_bad": "__STRING_NOT_TRANSLATED__",
    "product_details-general_info-rating-very_good": "__STRING_NOT_TRANSLATED__",
    "project-title": "GastroAssicurazioni",
    "prompt_text_creator": "Inserisci nuova azienda\t",
    "related-products_title": "Altre assicurazioni",
    "request-assistance-form_consultant-icon": "Chat",
    "request-assistance-form_email-icon": "E-Mail\t",
    "request-assistance-form_email-input": "E-Mail\t",
    "request-assistance-form_failure": "Ci dispiace, qualcosa è andato storto. Riprova più tardi.\t",
    "request-assistance-form_name-input": "Soprannome",
    "request-assistance-form_phone-icon": "Telefono",
    "request-assistance-form_phone-number": "044 330 30 30\t",
    "request-assistance-form_question-input": "la tua richiesta",
    "request-assistance-form_schedule_working-days": "Da Lunedì a Venerdì",
    "request-assistance-form_schedule_working-hours": "8:30 - 12:00 & 13:30 - 17:30",
    "request-assistance-form_send": "Inviare",
    "request-assistance-form_success": "La sua domanda è stata inviata con successo\t",
    "request-assistance-form_title": "Hai una domanda?",
    "search_prompt_text": "Ricerca\t",
    "select_default-invalid-message": "È stata selezionata un'opzione non valida",
    "sign-button": "__STRING_NOT_TRANSLATED__",
    "signup-caption": "Informazioni sulla vostra azienda",
    "signup-info": "Si prega di rispondere alle seguenti domande in modo da poter concludere il contratto.",
    "signup-org_info": "Informazioni sull'azienda",
    "signup-user_info": "Informazioni utente",
    "signup_user_info_email": "",
    "signup_user_info_email_hint": "Una password viene inviata a questa email per creare un accesso.",
    "signup-user_info-first_name": "Prenome",
    "signup-user_info-last_name": "Cognome",
    "signup_org_info_city": "Località",
    "signup_org_info_company_name": "Nome della compagnia",
    "signup_org_info_company_name-hint": "Se siete una ditta individuale o un privato e desiderate beneficiare delle soluzioni assicurative, inserite la vostra ragione sociale nel campo Ragione sociale e il vostro indirizzo privato nel campo Indirizzo.",
    "signup_org_info_phone_number": "Numero di cellulare per SMS login",
    "signup_org_info_phone_number_hint": "Numero di cellulare (necessario per verificare il tuo login con un codice SMS)",
    "signup_org_info_phone_number_placeholder": "p.es. +41791234567",
    "signup_org_info_postal_code": "ZIP",
    "signup_org_info_street_name": "Stradale",
    "signup_org_info_street_number": "No.",
    "signup_organisation-info_street-phone-input": "Numero di cellulare",
    "signup_organisation-info_street-phone-invalid-input": "Il numero di telefono non è valido",
    "signup_questionnaire-email-invalid": "Questa e-mail non è valida o già in uso.\t",
    "sms-validation_not-valid": "__STRING_NOT_TRANSLATED__",
    "some-authorisation-issue": "Qualcosa non è valido\t",
    "static-teaser_button_goto-gastrosocial": " Continua su GastroSocial",
    "static-teaser_button_goto-swica": "Continua su SWICA",
    "static-teaser_description_gastrosocial": "Il solido settore delle assicurazioni sociali con prodotti online che consentono di risparmiare tempo\n",
    "static-teaser_description_swica": "Protezione L-GAV in caso di infortunio e malattia dei dipendenti a prezzi elevati",
    "static-teaser_title_gastrosocial": "AVS e Pensione\t",
    "static-teaser_title_swica": "Infortuni e malattie dei dipendenti",
    "street_name_invalid_message": "Inserisci una strada valida\t",
    "street_number_invalid_message": "Inserisci un numero valido\t",
    "survey-invalid-date-message": "La data non deve appartenere al passato.",
    "survey-non-empty-date-message": "Si prega di compilare questo campo.",
    "survey-invalid-date-format-message": "Controlla il tuo input.",
    "survey-invalid-email-message": "Inserisci una email valida (info@gmail.com)\t",
    "survey-invalid-number-message": "Inserire un numero\t",
    "survey-next_question": "Continuare",
    "survey-next_question-enter": "oppure premere \"ENTER",
    "survey-question_options-comment": "__STRING_NOT_TRANSLATED__",
    "survey-required-number-message": "Campo obbligatorio\t",
    "survey_consultant_title": "Conclusione",
    "survey_member_title": "GastroSuisse",
    "survey_signup_title": "Dettagli dell'azienda",
    "switch-esurance_esurance-link-description": "Utilizzate il servizio di cambio gratuito di\t",
    "switch-esurance_if-have-insurance": "Avete già una polizza assicurativa e volete cambiarla facilmente e senza alcuno sforzo?\t",
    "switch-esurance_title": "Servizio di cambio gratuito",
    "teasers-button-price": "da\t",
    "teasers-button_goto": "Continuare a\t",
    "testimonial-casimir_platzer-position": "Proprietario dell'albergo e presidente di GastroSuisse",
    "testimonial-casimir_platzer-text": "\"Questa piattaforma lungimirante sgrava gli imprenditori e fa risparmiare sui premi assicurativi.\"",
    "testimonial-casimir_platzer-title": "Casimir Platzer",
    "testimonial-caterina_fellmann_&_maik_hellmüller-position": "Locatario rifugio Stafelalp a Davos-Frauenkirch",
    "testimonial-caterina_fellmann_&_maik_hellmüller-text": "La soluzione su misura per la gastronomia e l'industria alberghiera al miglior rapporto qualità-prezzo ci ha convinto completamente.",
    "testimonial-caterina_fellmann_&_maik_hellmüller-title": "Caterina Fellmann & Maik Hellmüller",
    "testimonial-enzo_pontoriero-position": "Consulente di Gastroconsult",
    "testimonial-enzo_pontoriero-text": "\"Grazie alla piattaforma, possiamo offrire direttamente ai nostri clienti pacchetti assicurativi eccezionali.\"",
    "testimonial-enzo_pontoriero-title": "Enzo Pontoriero",
    "testimonial-eva_topalli-position": "Gasthof zum Bären a Villnachern",
    "testimonial-eva_topalli-text": "\"Sono molto soddisfatto e contento di aver ricevuto un supporto professionale & buoni consigli.\"",
    "testimonial-eva_topalli-title": "Eva Topalli",
    "testimonial-familie_bernhard-position": "Ristorante Juraweid a Biberstein",
    "testimonial-familie_bernhard-text": "Penso che sia fantastico che ci sia una soluzione all-risk per noi ristoratori.",
    "testimonial-familie_bernhard-title": "Famiglia Bernhard",
    "testimonial-gabriela_weigold-position": "Consulenza gastro et alberghiera per la regione di Zurigo",
    "testimonial-gabriela_weigold-text": "\"Con l'intera gamma assicurativa da un solo fornitore, i nostri clienti risparmiano molto tempo e beneficiano di una protezione esclusiva per il settore alberghiero e della ristorazione.\"",
    "testimonial-gabriela_weigold-title": "Gabriela Weigold\t",
    "testimonial-gery_maurer-position": "Locatario Ristorante Sonne a Kölliken",
    "testimonial-gery_maurer-text": "\"Un unico interlocutore per tutte le questioni, i prodotti di prima classe e tutto questo insieme mi fa risparmiare molto tempo e fatica.\"",
    "testimonial-gery_maurer-title": "Gery Maurer",
    "testimonial-ibrahim_gökbas-position": "Proprietario Höfli Gastro GmbH",
    "testimonial-ibrahim_gökbas-text": "\"Tutto ciò di cui abbiamo bisogno è già incluso nella copertura di base, ma alcune coperture extra ci sono comunque sembrate utili.\"",
    "testimonial-ibrahim_gökbas-title": "Ibrahim Gökbas",
    "testimonial-mark_habuczky-position": "Locatario Ristorante Ski Rifugio a Oberurmein",
    "testimonial-mark_habuczky-text": "\"La consulenza semplice e competente mi ha convinto completamente, per approfittare del rapporto prezzo\/prestazioni.\"",
    "testimonial-mark_habuczky-title": "Mark Habuczky",
    "testimonial-martina_wächter-position": "Proprietario Café StadtKLATSCH",
    "testimonial-martina_wächter-text": "\"Per me è molto utile avere tutto sotto lo stesso tetto e quindi lo sforzo amministrativo può essere contenuto.\"",
    "testimonial-martina_wächter-title": "Martina Wächter",
    "testimonial-michèl_hug-position": "Refugio Dürrboden a Davos Dorf",
    "testimonial-michèl_hug-text": "Esattamente la soluzione giusta per me, le coperture di base sono perfette e sono stato in grado di completare supplementi individuali per la mia attività.",
    "testimonial-michèl_hug-title": "Michèl Hug",
    "testimonial-robert_farkas-position": "Proprietario Punto e Pasta a Winterthur",
    "testimonial-robert_farkas-text": "\"Dall'apertura del ristorante Punto e Pasta, ho puntato su una copertura assicurativa completa con il miglior rapporto qualità-prezzo.\"",
    "testimonial-robert_farkas-title": "Robert Farkas",
    "testimonial-rosmarie_roth-position": "Ristorante Kreuz a Wangen",
    "testimonial-rosmarie_roth-text": "\"Anche da profano tutto era comprensibile per me, super!\"",
    "testimonial-rosmarie_roth-title": "Rosmarie Roth",
    "testimonial-sritharan_sinnadurai-position": "Ristorante Sternen a Zurigo",
    "testimonial-sritharan_sinnadurai-text": "\"Semplicemente veloce e buono.\"",
    "testimonial-sritharan_sinnadurai-title": "Sritharan Sinnadurai",
    "testimonial-suchet_bantit-position": "Proprietario Thai Bogie Kitchen",
    "testimonial-suchet_bantit-text": "\"L'offerta ci ha convinto soprattutto per l'ampiezza dei servizi appositamente studiati per il settore della ristorazione.\"",
    "testimonial-suchet_bantit-title": "Suchet Bantit",
    "validation_min_max_value_error": "Secondo la legge la somma salariale deve situarsi tra CHF {{min}} e CHF {{max}}.",
    "price_calculation-min_employees_salary_error_msg": "Secondo la legge, il totale salariale deve essere di almeno CHF {{min}}",
    "who-helped-you-question": "Qual è il nome di questo consulente Gastro?",
    "yes-caption": "Sì",
    "zip-code-check-in-progress": "in corso\t",
    "price_parameter.activity_of_company.tooltip": "Il genere d'azienda corrisponde all'attività principale della ditta. Se non siete sicuri, contattate un consulente tramite chat, telefono o e-mail.",
    "validation_min_value_error": "Secondo la legge la somma salariale non deve superare CHF {{min}}",
    "validation_max_value_error": "Secondo la legge la somma salariale deve essere di almeno CHF {{max}}",
    "signup_user_info-email": "E-Mail"
}